{
  "connection_limit": {
    "description": [
      "how many concurrent connections the role can make"
    ],
    "type": "int"
  },
  "in_roles": {
    "description": [
      "list of roles to which the new role will be added as a new member"
    ],
    "type": "list"
  },
  "inherit": {
    "default": true,
    "description": [
      "let the role inherits the privileges of the roles its is a member of"
    ],
    "type": "bool"
  },
  "login": {
    "default": false,
    "description": [
      "allow the role to log in"
    ],
    "type": "bool"
  },
  "name": {
    "required": true,
    "type": "str"
  },
  "password": {
    "description": [
      "role password"
    ],
    "no_log": true,
    "type": "str"
  },
  "pgpass": {
    "default": false,
    "description": [
      "add an entry in password file for this role"
    ],
    "type": "bool"
  },
  "replication": {
    "default": false,
    "description": [
      "replication role"
    ],
    "type": "bool"
  },
  "state": {
    "choices": [
      "present",
      "absent"
    ],
    "default": "present"
  },
  "superuser": {
    "default": false,
    "description": [
      "superuser role"
    ],
    "type": "bool"
  },
  "validity": {
    "description": [
      "sets a date and time after which the role's password is no longer valid"
    ]
  }
}
